<?xml version="1.0" encoding="utf-8"?>
<!-- Generator: Adobe Illustrator 19.0.0, SVG Export Plug-In . SVG Version: 6.00 Build 0)  -->
<svg version="1.1" id="Capa_1" xmlns="http://www.w3.org/2000/svg" xmlns:xlink="http://www.w3.org/1999/xlink" x="0px" y="0px"
	 viewBox="-273 396.9 48 48" style="enable-background:new -273 396.9 48 48;" xml:space="preserve">
<style type="text/css">
	.st0{fill:none;}
	.st1{fill:#999999;}
</style>
<path d="M-267,418.9v4h36v-4H-267z"/>
<path class="st0" d="M-273,396.8h48v48h-48V396.8z"/>
<rect x="-259" y="434.8" class="st1" width="4" height="4"/>
<rect x="-259" y="402.9" class="st1" width="4" height="4"/>
<rect x="-251" y="402.9" class="st1" width="4" height="4"/>
<rect x="-251" y="434.8" class="st1" width="4" height="4"/>
<rect x="-267" y="426.8" class="st1" width="4" height="4"/>
<rect x="-267" y="434.8" class="st1" width="4" height="4"/>
<rect x="-267" y="402.9" class="st1" width="4" height="4"/>
<rect x="-267" y="410.8" class="st1" width="4" height="4"/>
<rect x="-251" y="426.8" class="st1" width="4" height="4"/>
<rect x="-235" y="410.8" class="st1" width="4" height="4"/>
<rect x="-235" y="402.9" class="st1" width="4" height="4"/>
<rect x="-235" y="426.8" class="st1" width="4" height="4"/>
<rect x="-243" y="434.8" class="st1" width="4" height="4"/>
<rect x="-251" y="410.8" class="st1" width="4" height="4"/>
<rect x="-235" y="434.8" class="st1" width="4" height="4"/>
<rect x="-243" y="402.9" class="st1" width="4" height="4"/>
</svg>
